{"failedCount":0,"prefixedPath":"classpath:Demo.feature","packageQualifiedName":"Demo","loopIndex":-1,"relativePath":"Demo.feature","scenarioResults":[{"sectionIndex":0,"stepResults":[{"result":{"nanos":1893900,"startTime":1735623521054,"endTime":1735623521056,"millis":1.8939,"status":"passed"},"step":{"line":4,"prefix":"Given","index":0,"text":"url 'https:\/\/reqres.in\/api\/users?page=2'"}},{"result":{"nanos":1253848100,"startTime":1735623521061,"endTime":1735623522315,"millis":1253.8481,"status":"passed"},"step":{"line":5,"prefix":"When","index":1,"text":"method GET"},"stepLog":"11:08:41.573 request:\n1 > GET https:\/\/reqres.in\/api\/users?page=2\n1 > Host: reqres.in\n1 > Connection: Keep-Alive\n1 > User-Agent: Apache-HttpClient\/4.5.14 (Java\/21.0.4)\n1 > Accept-Encoding: gzip,deflate\n\n\n11:08:42.249 response time in milliseconds: 668\n1 < 200\n1 < Date: Tue, 31 Dec 2024 05:38:40 GMT\n1 < Content-Type: application\/json; charset=utf-8\n1 < Transfer-Encoding: chunked\n1 < Connection: keep-alive\n1 < Report-To: {\"group\":\"heroku-nel\",\"max_age\":3600,\"endpoints\":[{\"url\":\"https:\/\/nel.heroku.com\/reports?ts=1735611509&sid=c4c9725f-1ab0-44d8-820f-430df2718e11&s=EWIdWU%2FdLGcu%2FmKwngMttT9PgTQMu%2FlPxulfzxuIdTw%3D\"}]}\n1 < Reporting-Endpoints: heroku-nel=https:\/\/nel.heroku.com\/reports?ts=1735611509&sid=c4c9725f-1ab0-44d8-820f-430df2718e11&s=EWIdWU%2FdLGcu%2FmKwngMttT9PgTQMu%2FlPxulfzxuIdTw%3D\n1 < Nel: {\"report_to\":\"heroku-nel\",\"max_age\":3600,\"success_fraction\":0.005,\"failure_fraction\":0.05,\"response_headers\":[\"Via\"]}\n1 < X-Powered-By: Express\n1 < Access-Control-Allow-Origin: *\n1 < Etag: W\/\"440-ZjsmMKR8P3usr2uJZbOCGCxC3Uw\"\n1 < Via: 1.1 vegur\n1 < Cache-Control: max-age=14400\n1 < CF-Cache-Status: HIT\n1 < Age: 4810\n1 < Vary: Accept-Encoding\n1 < Server: cloudflare\n1 < CF-RAY: 8fa7ecbcef0c7e73-MAA\n1 < server-timing: cfL4;desc=\"?proto=TCP&rtt=10668&min_rtt=10613&rtt_var=4091&sent=7&recv=7&lost=0&retrans=0&sent_bytes=3108&recv_bytes=738&delivery_rate=383001&cwnd=241&unsent_bytes=0&cid=4de3a565222c9104&ts=189&x=0\"\n{\"page\":2,\"per_page\":6,\"total\":12,\"total_pages\":2,\"data\":[{\"id\":7,\"email\":\"michael.lawson@reqres.in\",\"first_name\":\"Michael\",\"last_name\":\"Lawson\",\"avatar\":\"https:\/\/reqres.in\/img\/faces\/7-image.jpg\"},{\"id\":8,\"email\":\"lindsay.ferguson@reqres.in\",\"first_name\":\"Lindsay\",\"last_name\":\"Ferguson\",\"avatar\":\"https:\/\/reqres.in\/img\/faces\/8-image.jpg\"},{\"id\":9,\"email\":\"tobias.funke@reqres.in\",\"first_name\":\"Tobias\",\"last_name\":\"Funke\",\"avatar\":\"https:\/\/reqres.in\/img\/faces\/9-image.jpg\"},{\"id\":10,\"email\":\"byron.fields@reqres.in\",\"first_name\":\"Byron\",\"last_name\":\"Fields\",\"avatar\":\"https:\/\/reqres.in\/img\/faces\/10-image.jpg\"},{\"id\":11,\"email\":\"george.edwards@reqres.in\",\"first_name\":\"George\",\"last_name\":\"Edwards\",\"avatar\":\"https:\/\/reqres.in\/img\/faces\/11-image.jpg\"},{\"id\":12,\"email\":\"rachel.howell@reqres.in\",\"first_name\":\"Rachel\",\"last_name\":\"Howell\",\"avatar\":\"https:\/\/reqres.in\/img\/faces\/12-image.jpg\"}],\"support\":{\"url\":\"https:\/\/contentcaddy.io?utm_source=reqres&utm_medium=json&utm_campaign=referral\",\"text\":\"Tired of writing endless social media content? Let Content Caddy generate it for you.\"}}\n\n"},{"result":{"nanos":14116000,"startTime":1735623522314,"endTime":1735623522328,"millis":14.116,"status":"passed"},"step":{"line":6,"prefix":"Then","index":2,"text":"status 200"}}],"executorName":"main","line":3,"name":"Test addition","description":"","durationMillis":1269.858,"startTime":1735623520746,"failed":false,"refId":"[1:3]","endTime":1735623522328,"exampleIndex":-1},{"sectionIndex":1,"stepResults":[{"result":{"nanos":25745600,"startTime":1735623522367,"endTime":1735623522393,"millis":25.7456,"status":"passed"},"step":{"line":10,"prefix":"*","index":0,"text":"print 'Hello World'"},"stepLog":"11:08:42.391 [print] Hello World \n"}],"executorName":"main","line":8,"name":"Verify the print","description":"","durationMillis":25.7456,"startTime":1735623522357,"failed":false,"refId":"[2:8]","endTime":1735623522392,"exampleIndex":-1},{"sectionIndex":2,"stepResults":[{"result":{"nanos":10940100,"startTime":1735623522413,"endTime":1735623522424,"millis":10.9401,"status":"passed"},"step":{"line":13,"prefix":"*","index":0,"text":"def a = 10"}},{"result":{"nanos":1367900,"startTime":1735623522424,"endTime":1735623522425,"millis":1.3679,"status":"passed"},"step":{"line":14,"prefix":"*","index":1,"text":"def b = 20"}},{"result":{"nanos":29236000,"startTime":1735623522425,"endTime":1735623522454,"millis":29.236,"status":"passed"},"step":{"line":15,"prefix":"*","index":2,"text":"print 'add ->' + (a + b)"},"stepLog":"11:08:42.455 [print] add ->30 \n"}],"executorName":"main","line":12,"name":"Perform Add","description":"","durationMillis":41.544,"startTime":1735623522408,"failed":false,"refId":"[3:12]","endTime":1735623522455,"exampleIndex":-1},{"sectionIndex":3,"stepResults":[{"result":{"nanos":1211100,"startTime":1735623522472,"endTime":1735623522473,"millis":1.2111,"status":"passed"},"step":{"line":19,"prefix":"Given","index":0,"text":"url baseUrl+'\/public\/v1\/users\/'"}},{"result":{"nanos":469580600,"startTime":1735623522474,"endTime":1735623522944,"millis":469.5806,"status":"passed"},"step":{"line":20,"prefix":"When","index":1,"text":"method GET"},"stepLog":"11:08:42.476 request:\n1 > GET https:\/\/gorest.co.in\/public\/v1\/users\/\n1 > Host: gorest.co.in\n1 > Connection: Keep-Alive\n1 > User-Agent: Apache-HttpClient\/4.5.14 (Java\/21.0.4)\n1 > Accept-Encoding: gzip,deflate\n\n\n11:08:42.936 response time in milliseconds: 457\n1 < 200\n1 < Date: Tue, 31 Dec 2024 05:38:41 GMT\n1 < Content-Type: application\/json; charset=utf-8\n1 < Transfer-Encoding: chunked\n1 < Connection: keep-alive\n1 < Cache-Control: max-age=0, private, must-revalidate\n1 < etag: W\/\"32741fc318516dd0ced97ce2d3bce89c\"\n1 < feature-policy: camera 'none'; gyroscope 'none'; microphone 'none'; usb 'none'; fullscreen 'self'\n1 < referrer-policy: strict-origin-when-cross-origin\n1 < vary: Origin\n1 < x-content-type-options: nosniff\n1 < x-download-options: noopen\n1 < x-frame-options: SAMEORIGIN\n1 < x-permitted-cross-domain-policies: none\n1 < x-request-id: 34ba6b7b-a19f-41d2-9d1a-f9487f63bf79\n1 < x-runtime: 0.144167\n1 < x-xss-protection: 0\n1 < cf-cache-status: DYNAMIC\n1 < Report-To: {\"endpoints\":[{\"url\":\"https:\\\/\\\/a.nel.cloudflare.com\\\/report\\\/v4?s=izwrYiacTc%2Bz8Rr46Z%2Fsf%2FxMKfHbzYsbHvFg%2FJ8qHfo0X5fJC76dE4cPX6WPV%2BwYqmg9HytjbH1AIBm1S9rBJMMy30QumRJC%2FZzjFm5vBYnjGBNsMcO%2Bi0klyZcxqCM%3D\"}],\"group\":\"cf-nel\",\"max_age\":604800}\n1 < NEL: {\"success_fraction\":0,\"report_to\":\"cf-nel\",\"max_age\":604800}\n1 < Server: cloudflare\n1 < CF-RAY: 8fa7ecbfecf86ee0-BOM\n1 < alt-svc: h3=\":443\"; ma=86400\n1 < server-timing: cfL4;desc=\"?proto=TCP&rtt=29438&min_rtt=29432&rtt_var=11049&sent=6&recv=7&lost=0&retrans=0&sent_bytes=2693&recv_bytes=744&delivery_rate=95793&cwnd=153&unsent_bytes=0&cid=d9d323a869580e38&ts=304&x=0\"\n{\"meta\":{\"pagination\":{\"total\":2982,\"pages\":299,\"page\":1,\"limit\":10,\"links\":{\"previous\":null,\"current\":\"https:\/\/gorest.co.in\/public\/v1\/users?page=1\",\"next\":\"https:\/\/gorest.co.in\/public\/v1\/users?page=2\"}}},\"data\":[{\"id\":7609175,\"name\":\"Vaishnavi Pilla\",\"email\":\"pilla_vaishnavi@botsford.example\",\"gender\":\"male\",\"status\":\"active\"},{\"id\":7609173,\"name\":\"Meena Agarwal V\",\"email\":\"meena_agarwal_v@kuphal-wehner.test\",\"gender\":\"female\",\"status\":\"inactive\"},{\"id\":7609172,\"name\":\"Rohana Rana\",\"email\":\"rohana_rana@connelly.test\",\"gender\":\"male\",\"status\":\"active\"},{\"id\":7609171,\"name\":\"Deeptimoyee Singh\",\"email\":\"singh_deeptimoyee@turcotte.test\",\"gender\":\"male\",\"status\":\"active\"},{\"id\":7609169,\"name\":\"Mandaakin Embranthiri V\",\"email\":\"embranthiri_v_mandaakin@pagac-jerde.test\",\"gender\":\"male\",\"status\":\"inactive\"},{\"id\":7609167,\"name\":\"Girish Nehru Esq.\",\"email\":\"esq_nehru_girish@hilpert.example\",\"gender\":\"male\",\"status\":\"active\"},{\"id\":7609165,\"name\":\"Dr. Vaijayanti Guneta\",\"email\":\"dr_vaijayanti_guneta@welch.test\",\"gender\":\"male\",\"status\":\"active\"},{\"id\":7609164,\"name\":\"Bhavani Ganaka\",\"email\":\"ganaka_bhavani@kuhn.example\",\"gender\":\"female\",\"status\":\"inactive\"},{\"id\":7609163,\"name\":\"Mohini Verma\",\"email\":\"mohini_verma@hoeger-kuhlman.test\",\"gender\":\"female\",\"status\":\"active\"},{\"id\":7609162,\"name\":\"Chandranath Chopra\",\"email\":\"chopra_chandranath@hoppe-morissette.test\",\"gender\":\"female\",\"status\":\"active\"}]}\n\n"},{"result":{"nanos":35700,"startTime":1735623522943,"endTime":1735623522943,"millis":0.0357,"status":"passed"},"step":{"line":21,"prefix":"Then","index":2,"text":"status 200"}}],"executorName":"main","line":17,"name":"Verify the configu","description":"","durationMillis":470.8274,"startTime":1735623522469,"failed":false,"refId":"[4:17]","endTime":1735623522944,"exampleIndex":-1}],"callDepth":0,"name":"Sample Karate Test","description":"","resultDate":"2024-12-31 11:08:42 am","durationMillis":1807.975,"passedCount":4}